…
    ## Warning: There were 43 warnings in `mutate()`.
    ## The first warning was:
    ## ℹ In argument: `results = map(models, ~tidy(.x, conf.int = TRUE, exponentiate =
    ##   TRUE))`.
    ## Caused by warning:
    ## ! glm.fit: fitted probabilities numerically 0 or 1 occurred
    ## ℹ Run `dplyr::last_dplyr_warnings()` to see the 42 remaining warnings.

``` r
city_or_results
```

    ## # A tibble: 47 × 4
    ##    city_state      estimate conf.low conf.high
    ##    <chr>              <dbl>    <dbl>     <dbl>
    ##  1 New York, NY       0.262    0.133     0.485
    ##  2 Baton Rouge, LA    0.381    0.204     0.684
    ##  3 Omaha, NE          0.382    0.199     0.711
    ##  4 Cincinnati, OH     0.400    0.231     0.667
    ##  5 Chicago, IL        0.410    0.336     0.501
    ##  6 Long Beach, CA     0.410    0.143     1.02 
    ##  7 San Diego, CA      0.413    0.191     0.830
    ##  8 Baltimore, MD      0.426    0.324     0.558
    ##  9 Pittsburgh, PA     0.431    0.263     0.696
    ## 10 Denver, CO         0.479    0.233     0.962
    ## # ℹ 37 more rows
…
